…
    ```r
     > covid_cases_age
    # A tibble: 433 x 3
    # Groups:   date [91]
       date       age_class new_cases
       <date>     <chr>         <int>
     1 2020-07-13 0-19             44
     2 2020-07-13 20-39            73
     3 2020-07-13 40-59            84
     4 2020-07-13 60-79            49
     5 2020-07-13 80+               3
     6 2020-07-14 0-19             61
     7 2020-07-14 20-39           213
     8 2020-07-14 40-59           219
     9 2020-07-14 60-79           102
    10 2020-07-14 80+              10
    # ... with 423 more rows
    ```
…
